…
Artist

Album

Song title

Lyrics

The lyrics are all in one row so the first step is to turn this into a tidytext format, which means a tibble with one token per row. A token is defined as a meaningful unit of text, most often a word, and tokenization is the process of breaking a vector down into tokens. We will use the unnest_tokens() function to do this. This function takes 2 arguments, the name of the new column that will be created with the tokens and the name of the current column to be turned into tokens. Note, I named the new column “word” so that it will match up with another tibble in the next step. The function separates the vectors into single words and by default turns everything into lowercase letters.

ts %>% 
  unnest_tokens(word, Lyrics)

## # A tibble: 48,555 x 4
##    Artist       Album        Title      word 
##    <chr>        <chr>        <chr>      <chr>
##  1 Taylor Swift Taylor Swift Tim McGraw he   
##  2 Taylor Swift Taylor Swift Tim McGraw said 
##  3 Taylor Swift Taylor Swift Tim McGraw the  
##  4 Taylor Swift Taylor Swift Tim McGraw way  
##  5 Taylor Swift Taylor Swift Tim McGraw my   
##  6 Taylor Swift Taylor Swift Tim McGraw blue 
##  7 Taylor Swift Taylor Swift Tim McGraw eyes 
##  8 Taylor Swift Taylor Swift Tim McGraw shinx
##  9 Taylor Swift Taylor Swift Tim McGraw put  
## 10 Taylor Swift Taylor Swift Tim McGraw those
## # … with 48,545 more rows
…
data("stop_words")

custom_stop <- data.frame(word = c("ooh", "yeah", "ah", "uh", "ha", "woah"))

tidy_ts <- ts %>% 
  unnest_tokens(word, Lyrics) %>% 
  anti_join(stop_words) %>% 
  anti_join(custom_stop)

Now let’s take a look at some of her most used words. This figure shows the top 15 most frequent words for each album:

tidy_ts %>% 
  count(word, sort = T)

## # A tibble: 2,574 x 2
##    word      n
##    <chr> <int>
##  1 love    248
##  2 time    225
##  3 wanna   158
##  4 baby    153
##  5 stay    100
##  6 gonna    98
##  7 night    96
##  8 bad      80
##  9 girl     80
## 10 home     76
## # … with 2,564 more rows
…
