Learn Tidyverse: Pivot Functions
…
The new dataset looks more like a square because it has more columns and fewer rows than our original dataframe did. Now, each row has 3 observations, the number of visitors to each location.

To turn it back to long format, we will use pivot_longer and give the col argument the columns we want to combine into one.

dat.wider %>% 
  pivot_longer(cols = c("beach", "park", "lake"))

## # A tibble: 30 x 3
##     year name  value
##    <int> <chr> <dbl>
##  1  2011 beach    61
##  2  2011 park     46
##  3  2011 lake     60
##  4  2012 beach    38
##  5  2012 park     41
##  6  2012 lake     31
##  7  2013 beach    23
##  8  2013 park     64
##  9  2013 lake     69
## 10  2014 beach    67
## # ... with 20 more rows

dat.wider %>% 
  pivot_longer(cols = c("beach", "park", "lake"),
               names_to = "location",
               values_to = "N_visitors")

## # A tibble: 30 x 3
##     year location N_visitors
##    <int> <chr>         <dbl>
##  1  2011 beach            61
##  2  2011 park             46
##  3  2011 lake             60
##  4  2012 beach            38
##  5  2012 park             41
##  6  2012 lake             31
##  7  2013 beach            23
##  8  2013 park             64
##  9  2013 lake             69
## 10  2014 beach            67
## # ... with 20 more rows
…
